<?xml version="1.0" encoding="UTF-8" standalone="no"?>
<!-- Created with Inkscape (http://www.inkscape.org/) -->

<svg
   xmlns:dc="http://purl.org/dc/elements/1.1/"
   xmlns:cc="http://creativecommons.org/ns#"
   xmlns:rdf="http://www.w3.org/1999/02/22-rdf-syntax-ns#"
   xmlns:svg="http://www.w3.org/2000/svg"
   xmlns="http://www.w3.org/2000/svg"
   xmlns:sodipodi="http://sodipodi.sourceforge.net/DTD/sodipodi-0.dtd"
   xmlns:inkscape="http://www.inkscape.org/namespaces/inkscape"
   width="234.11319mm"
   height="56.910881mm"
   viewBox="0 0 829.53492 201.65273"
   id="svg2"
   version="1.1"
   inkscape:version="0.91 r13725"
   sodipodi:docname="logotype-mono.svg"
   inkscape:export-filename="d:\LocalData\ii40253\Desktop\logotype3.png"
   inkscape:export-xdpi="150"
   inkscape:export-ydpi="150">
  <defs
     id="defs4" />
  <sodipodi:namedview
     id="base"
     pagecolor="#ffffff"
     bordercolor="#666666"
     borderopacity="1.0"
     inkscape:pageopacity="0.0"
     inkscape:pageshadow="2"
     inkscape:zoom="1.979899"
     inkscape:cx="598.90468"
     inkscape:cy="115.78302"
     inkscape:document-units="px"
     inkscape:current-layer="g4707"
     showgrid="false"
     fit-margin-top="10"
     fit-margin-left="10"
     fit-margin-right="10"
     fit-margin-bottom="10"
     inkscape:window-width="1366"
     inkscape:window-height="706"
     inkscape:window-x="-8"
     inkscape:window-y="-8"
     inkscape:window-maximized="1" />
  <metadata
     id="metadata7">
    <rdf:RDF>
      <cc:Work
         rdf:about="">
        <dc:format>image/svg+xml</dc:format>
        <dc:type
           rdf:resource="http://purl.org/dc/dcmitype/StillImage" />
        <dc:title />
      </cc:Work>
    </rdf:RDF>
  </metadata>
  <g
     inkscape:label="Livello 1"
     inkscape:groupmode="layer"
     id="layer1"
     transform="translate(32.654282,-376.63988)">
    <g
       id="g4707">
      <path
         style="fill:#3c3c3c;fill-opacity:1;stroke:none"
         d="M 194.81055 35.433594 C 156.14388 35.433594 154.74388 35.500264 152.81055 37.433594 C 150.89945 39.344704 150.81055 40.766924 150.81055 69.433594 L 150.81055 97.826172 L 163.62305 97.826172 L 163.62305 74.683594 C 163.62305 72.016927 164.20638 69.433594 165.37305 66.933594 C 166.53971 64.35026 168.08138 62.10026 169.99805 60.183594 C 171.91471 58.183594 174.16471 56.60026 176.74805 55.433594 C 179.33138 54.183594 182.03971 53.558594 184.87305 53.558594 L 204.74805 53.558594 C 207.58138 53.558594 210.24805 54.183594 212.74805 55.433594 C 215.33138 56.60026 217.58138 58.183594 219.49805 60.183594 C 221.49805 62.10026 223.08138 64.35026 224.24805 66.933594 C 225.41471 69.433594 225.99805 72.016927 225.99805 74.683594 L 225.99805 97.826172 L 238.81055 97.826172 L 238.81055 69.433594 C 238.81055 40.766924 238.72165 39.344704 236.81055 37.433594 C 234.87722 35.500294 233.47722 35.433594 194.81055 35.433594 z M 529.07227 35.433594 C 490.40561 35.433594 489.0056 35.500264 487.07227 37.433594 C 485.16117 39.344704 485.07227 40.766924 485.07227 69.433594 L 485.07227 97.826172 L 531.78711 97.826172 L 539.50977 90.058594 L 539.50977 63.933594 L 497.88477 63.933594 L 497.88477 53.558594 L 560.25977 53.558594 L 560.25977 90.808594 L 553.36133 97.826172 L 573.07227 97.826172 L 573.07227 69.433594 C 573.07227 40.766924 572.98337 39.344704 571.07227 37.433594 C 569.13895 35.500294 567.73894 35.433594 529.07227 35.433594 z M 627.44531 36.21875 C 588.77864 36.21875 587.37864 36.28542 585.44531 38.21875 C 583.53421 40.12986 583.44531 41.55208 583.44531 70.21875 L 583.44531 97.826172 L 638.07031 97.826172 L 638.07031 95.90625 L 608.19531 95.90625 L 608.19531 85.90625 L 634.44531 64.65625 L 596.57031 64.65625 L 596.57031 54.40625 L 658.82031 54.40625 L 658.82031 64.65625 L 631.69531 85.65625 L 637.69531 85.65625 C 640.36198 85.65625 642.94531 86.197917 645.44531 87.28125 C 648.02865 88.28125 650.27865 89.697917 652.19531 91.53125 C 654.17259 93.343753 655.73958 95.443516 656.90234 97.826172 L 671.44531 97.826172 L 671.44531 70.21875 C 671.44531 41.55208 671.35641 40.12986 669.44531 38.21875 C 667.51198 36.28545 666.11198 36.21875 627.44531 36.21875 z M 111.76172 40.628906 C 97.110983 40.628906 83.85553 45.334134 72.412109 54.589844 L 72.410156 54.589844 L 72.408203 54.591797 C 57.831157 66.421627 50.351562 82.288026 50.351562 101.31445 C 50.351562 120.28942 57.832958 136.12671 72.408203 147.95508 L 72.410156 147.95703 L 72.412109 147.95703 C 83.849939 157.20821 97.022571 161.91797 111.51953 161.91797 C 119.93496 161.91797 128.95172 159.96194 138.56836 156.14844 L 140.46289 155.39648 L 140.46289 153.35938 L 140.46289 110.75 L 135.14648 117.21289 C 132.56808 120.34741 130.06012 122.57033 127.72266 123.94531 L 127.71289 123.95312 L 127.70117 123.96094 C 123.03269 126.76203 118.14015 128.125 112.80859 128.125 C 105.99793 128.125 100.33195 126.15129 95.367188 122.11133 C 89.096637 117.00739 86.080078 110.383 86.080078 101.31641 C 86.080078 92.192212 89.100251 85.540453 95.367188 80.439453 C 100.33195 76.399503 105.99793 74.425781 112.80859 74.425781 C 118.14015 74.425781 123.03269 75.788754 127.70117 78.589844 L 127.70508 78.591797 L 127.70898 78.59375 C 130.12181 80.03217 132.62232 82.257311 135.14258 85.332031 L 140.46289 91.822266 L 140.46289 47.138672 L 138.55273 46.394531 C 128.79295 42.589871 119.87458 40.630859 111.76172 40.630859 L 111.76172 40.628906 z M 247.67969 42.964844 L 247.67969 109.37109 C 247.67969 117.67989 248.26297 124.36768 249.53711 129.58008 C 251.31416 136.85897 254.68034 143.07291 259.5957 147.98828 C 268.76255 157.2086 281.56455 161.75781 297.32617 161.75781 C 312.82255 161.75781 325.63673 157.29615 335.16016 148.28906 L 335.16211 148.28711 L 335.16406 148.28516 C 341.79281 141.99634 346.13812 134.8395 347.94727 126.96094 L 347.94531 126.96094 C 349.08869 121.98724 349.63281 116.14013 349.63281 109.37109 L 349.63281 42.964844 L 315.0332 42.964844 L 315.0332 105.50391 C 315.0332 115.5612 313.48984 122.10314 311.66406 124.59961 L 311.66016 124.60352 L 311.65625 124.60938 C 308.66095 128.73926 304.5754 130.70117 298.29297 130.70117 C 295.57429 130.70117 293.20427 130.17446 291.05078 129.14258 L 291.04102 129.13867 L 291.0293 129.13281 C 285.59888 126.58005 282.99673 122.66588 282.51562 116.01367 C 282.36383 113.78734 282.2793 110.25048 282.2793 105.50391 L 282.2793 42.964844 L 247.67969 42.964844 z M 359.625 42.964844 L 359.625 158.9375 L 394.22656 158.9375 L 394.22656 97.300781 L 442.37305 158.9375 L 475.4375 158.9375 L 475.4375 155.9375 L 475.4375 42.964844 L 440.83594 42.964844 L 440.83594 104.53125 L 392.68945 42.964844 L 359.625 42.964844 z M 682.04297 42.964844 L 682.04297 158.9375 L 716.64453 158.9375 L 716.64453 123.9082 L 739.24023 158.9375 L 782.56445 158.9375 L 778.86719 154.11328 L 746.99023 112.50195 C 751.92204 110.85979 756.09795 108.46063 759.35156 105.20703 C 765.74486 98.813712 768.93164 90.121094 768.93164 79.802734 C 768.93164 70.723944 766.16 62.570517 760.70117 55.773438 L 760.69727 55.767578 C 753.83089 47.188518 743.10995 42.964844 729.51562 42.964844 L 682.04297 42.964844 z M 111.76172 46.628906 C 118.39727 46.628906 126.00075 48.206613 134.46289 51.314453 L 134.46289 76.1875 C 133.25654 75.17599 132.04527 74.193003 130.78125 73.439453 C 125.24671 70.120503 119.1831 68.423828 112.80859 68.423828 C 104.79503 68.423828 97.572344 70.907143 91.580078 75.783203 C 83.989591 81.961503 80.080078 90.780426 80.080078 101.31445 C 80.080078 111.79863 83.993208 120.58831 91.580078 126.76367 C 97.572343 131.63973 104.79503 134.12305 112.80859 134.12305 C 119.18019 134.12305 125.24094 132.42729 130.77344 129.11133 C 132.03352 128.36945 133.25086 127.38728 134.46289 126.36914 L 134.46289 151.24023 C 126.13889 154.33891 118.4702 155.91797 111.51953 155.91797 C 98.3031 155.91797 86.664787 151.76645 76.189453 143.29492 L 76.185547 143.29297 C 62.833367 132.4558 56.351564 118.75403 56.351562 101.31445 C 56.351562 83.818906 62.835173 70.089666 76.185547 59.253906 L 76.189453 59.251953 C 86.659217 50.784933 98.376821 46.628906 111.76172 46.628906 z M 253.67969 48.964844 L 276.2793 48.964844 L 276.2793 105.50391 C 276.2793 110.31789 276.3588 113.92163 276.5293 116.42188 L 276.5293 116.42773 L 276.5293 116.43555 C 277.12439 124.70738 281.34312 131.20811 288.47656 134.5625 L 288.47852 134.56445 C 291.47588 135.99666 294.78922 136.70313 298.29297 136.70312 C 305.97071 136.70312 312.41096 133.78132 316.50586 128.14258 L 316.50781 128.13867 C 319.94375 123.43773 321.0332 116.07105 321.0332 105.50586 L 321.0332 48.966797 L 343.63281 48.966797 L 343.63281 109.37305 C 343.63281 115.81689 343.10467 121.24714 342.09961 125.61914 L 342.09766 125.61914 C 340.57673 132.24255 336.9728 138.29858 331.0332 143.93359 C 322.72496 151.78975 311.69124 155.75977 297.32617 155.75977 C 282.69134 155.75977 271.75844 151.71642 263.8457 143.75391 L 263.8418 143.74805 L 263.83789 143.74609 C 259.73024 139.63843 256.91838 134.51914 255.36523 128.15625 L 255.36523 128.1543 C 254.27609 123.69873 253.67969 117.39041 253.67969 109.37109 L 253.67969 48.964844 z M 365.625 48.964844 L 389.76367 48.964844 L 446.83594 121.94336 L 446.83594 48.964844 L 469.4375 48.964844 L 469.4375 152.9375 L 445.29883 152.9375 L 388.22656 79.869141 L 388.22656 152.9375 L 365.625 152.9375 L 365.625 48.964844 z M 688.04297 48.964844 L 729.51562 48.964844 C 741.91449 48.964844 750.42088 52.528054 756.01562 59.521484 L 756.01758 59.523438 L 756.01953 59.525391 C 760.65539 65.295551 762.93164 71.911334 762.93164 79.802734 C 762.93164 88.927724 760.31761 95.756588 755.10938 100.96484 C 751.88498 104.18924 747.35669 106.53429 741.26953 107.89258 L 736.68555 108.91602 L 770.41016 152.9375 L 742.50977 152.9375 L 710.64453 103.53516 L 710.64453 152.9375 L 688.04297 152.9375 L 688.04297 48.964844 z M 184.37305 63.933594 L 184.37305 97.826172 L 205.24805 97.826172 L 205.24805 63.933594 L 184.37305 63.933594 z M 710.64453 64.716797 L 710.64453 98.191406 L 718.96094 98.191406 C 725.39621 98.191406 730.55387 96.883209 734.00977 93.568359 L 734.01172 93.568359 L 734.01367 93.566406 C 737.37567 90.331276 739.20313 86.060983 739.20312 81.414062 C 739.20312 76.767144 737.36897 72.507906 733.99219 69.322266 L 733.99023 69.320312 L 733.98828 69.318359 C 730.49551 66.035149 725.34628 64.716797 718.96094 64.716797 L 710.64453 64.716797 z M 716.64453 70.716797 L 718.96094 70.716797 C 724.49943 70.716797 728.00059 71.923833 729.87891 73.689453 C 732.19238 75.873733 733.20313 78.221223 733.20312 81.414062 C 733.20312 84.607362 732.18439 86.995851 729.85547 89.238281 C 728.0477 90.972261 724.55692 92.191406 718.96094 92.191406 L 716.64453 92.191406 L 716.64453 70.716797 z M 150.81055 103.82617 L 150.81055 131.60352 C 150.81055 158.27487 151.00379 161.98692 152.4668 163.60352 C 154.01825 165.31785 156.6552 165.43359 194.63672 165.43359 C 230.93421 165.43359 235.3441 165.26 236.98242 163.77734 C 238.67754 162.24328 238.81055 159.90511 238.81055 131.77734 L 238.81055 103.82617 L 225.99805 103.82617 L 225.99805 126.18359 C 225.99805 129.01693 225.41471 131.72526 224.24805 134.30859 C 223.08138 136.80859 221.49805 139.05859 219.49805 141.05859 C 217.58138 142.97526 215.33138 144.51693 212.74805 145.68359 C 210.24805 146.76693 207.58138 147.30859 204.74805 147.30859 L 184.87305 147.30859 C 182.03971 147.30859 179.33138 146.76693 176.74805 145.68359 C 174.16471 144.51693 171.91471 142.97526 169.99805 141.05859 C 168.08138 139.05859 166.53971 136.80859 165.37305 134.30859 C 164.20638 131.72526 163.62305 129.01693 163.62305 126.18359 L 163.62305 103.82617 L 150.81055 103.82617 z M 184.37305 103.82617 L 184.37305 136.80859 L 205.24805 136.80859 L 205.24805 103.82617 L 184.37305 103.82617 z M 485.07227 103.82617 L 485.07227 131.60352 C 485.07227 158.27487 485.26355 161.98692 486.72656 163.60352 C 488.27801 165.31785 490.91692 165.43359 528.89844 165.43359 C 565.19593 165.43359 569.60582 165.26 571.24414 163.77734 C 572.93927 162.24328 573.07227 159.90511 573.07227 131.77734 L 573.07227 103.82617 L 547.46484 103.82617 L 538.63477 112.80859 L 538.63477 147.30859 L 517.88477 147.30859 L 517.88477 111.80859 L 525.82031 103.82617 L 485.07227 103.82617 z M 583.44531 103.82617 L 583.44531 132.39062 C 583.44531 159.06197 583.63855 162.77403 585.10156 164.39062 C 586.65301 166.10496 589.28996 166.21875 627.27148 166.21875 C 663.56897 166.21875 667.97887 166.04711 669.61719 164.56445 C 671.31231 163.03039 671.44531 160.69222 671.44531 132.56445 L 671.44531 103.82617 L 658.74023 103.82617 C 658.79187 104.34602 658.82031 104.87265 658.82031 105.40625 L 658.82031 126.90625 C 658.82031 129.57292 658.19531 132.19792 656.94531 134.78125 C 655.77865 137.28125 654.19531 139.53125 652.19531 141.53125 C 650.27865 143.44792 648.02865 145.03125 645.44531 146.28125 C 642.94531 147.44792 640.36198 148.03125 637.69531 148.03125 L 617.57031 148.03125 C 614.82031 148.03125 612.15365 147.44792 609.57031 146.28125 C 606.98698 145.03125 604.69531 143.44792 602.69531 141.53125 C 600.69531 139.53125 599.07031 137.28125 597.82031 134.78125 C 596.65365 132.19792 596.07031 129.57292 596.07031 126.90625 L 606.44531 126.90625 C 606.44531 130.07292 607.44531 132.65625 609.44531 134.65625 C 611.52865 136.65625 614.23698 137.65625 617.57031 137.65625 L 638.07031 137.65625 L 638.07031 103.82617 L 583.44531 103.82617 z "
         transform="translate(-32.654282,376.63988)"
         id="path4158-4" />
    </g>
  </g>
</svg>
