(SPLIT-FLAP)
(T7  D=1.5 CR=0. - ZMIN=-3. - FLAT END MILL)
G0 G90 G94 G17
G21
G53 G0 Z0.

(CAVITY)
M5
M9
T7 M6
S8000 M3
G4 P4.
G55
G0 X48.55 Y67.4
Z12.5
Z2.5
G1 Z-1.5 F200.
Z-2.85
X48.557 Z-2.896
X48.579 Z-2.938
X48.612 Z-2.971
X48.654 Z-2.993
X48.7 Z-3.
X48.85 F1100.
X48.896 Y67.393
X48.938 Y67.371
X48.971 Y67.338
X48.993 Y67.296
X49. Y67.25
Y64.
Y61.5
X44.25
Y67.25
X44.257 Y67.296
X44.279 Y67.338
X44.312 Y67.371
X44.354 Y67.393
X44.4 Y67.4
X44.55
X44.596 Z-2.993
X44.638 Z-2.971
X44.671 Z-2.938
X44.693 Z-2.896
X44.7 Z-2.85
G0 Z12.5

(CAVITY)
G55
G0 X57.95 Y67.4
Z12.5
Z2.5
G1 Z-1.5 F200.
Z-2.85
X57.943 Z-2.896
X57.921 Z-2.938
X57.888 Z-2.971
X57.846 Z-2.993
X57.8 Z-3.
X57.65 F1100.
X57.604 Y67.393
X57.562 Y67.371
X57.529 Y67.338
X57.507 Y67.296
X57.5 Y67.25
Y64.
Y61.5
X62.25
Y67.25
X62.243 Y67.296
X62.221 Y67.338
X62.188 Y67.371
X62.146 Y67.393
X62.1 Y67.4
X61.95
X61.904 Z-2.993
X61.862 Z-2.971
X61.829 Z-2.938
X61.807 Z-2.896
X61.8 Z-2.85
G0 Z12.5

(CAVITY)
G55
G0 X48.55 Y6.6
Z12.5
Z2.5
G1 Z-1.5 F200.
Z-2.85
X48.557 Z-2.896
X48.579 Z-2.938
X48.612 Z-2.971
X48.654 Z-2.993
X48.7 Z-3.
X48.85 F1100.
X48.896 Y6.607
X48.938 Y6.629
X48.971 Y6.662
X48.993 Y6.704
X49. Y6.75
Y10.
Y12.5
X44.25
Y6.75
X44.257 Y6.704
X44.279 Y6.662
X44.312 Y6.629
X44.354 Y6.607
X44.4 Y6.6
X44.55
X44.596 Z-2.993
X44.638 Z-2.971
X44.671 Z-2.938
X44.693 Z-2.896
X44.7 Z-2.85
G0 Z12.5

(CAVITY)
G55
G0 X57.95 Y6.6
Z12.5
Z2.5
G1 Z-1.5 F200.
Z-2.85
X57.943 Z-2.896
X57.921 Z-2.938
X57.888 Z-2.971
X57.846 Z-2.993
X57.8 Z-3.
X57.65 F1100.
X57.604 Y6.607
X57.562 Y6.629
X57.529 Y6.662
X57.507 Y6.704
X57.5 Y6.75
Y10.
Y12.5
X62.25
Y6.75
X62.243 Y6.704
X62.221 Y6.662
X62.188 Y6.629
X62.146 Y6.607
X62.1 Y6.6
X61.95
X61.904 Z-2.993
X61.862 Z-2.971
X61.829 Z-2.938
X61.807 Z-2.896
X61.8 Z-2.85
G0 Z12.5

(SPLIT)
G55
G0 X53.25 Y5.
Z12.5
Z2.5
G1 Z-3. F1100.
Y69.
Z2.5
G0 Z12.5

G53 Z0.
M30
